{
    "Name": "Carbon Dioxide",
    "TextRepresentation": "CO2",
    "Nodes": [
        {
            "ID": 0,
            "AtomType": "Carbon"
        },
        {
            "ID": 1,
            "AtomType": "Oxygen"
        },
        {
            "ID": 2,
            "AtomType": "Oxygen"
        }
    ],
    "Connections":[
        {
            "A": 0,
            "B": 1,
            "BondType": "Double",
            "Angle": [0,0,90]
        },
        {
            "A": 0,
            "B": 2,
            "BondType": "Double",
            "Angle": [0,0,-90]
        }
    ]
}