{
    "Name": "Hydrogen Chloride",
    "TextRepresentation": "HCl",
    "Nodes": [
        {
            "ID": 0,
            "AtomType": "Hydrogen"
        },
        {
            "ID": 1,
            "AtomType": "Chlorine"
        }
    ],
    "Connections":[
        {
            "A": 0,
            "B": 1,
            "BondType": "Single",
            "Angle": [0,0,90]
        }
    ]
}