{
    "Name": "Water",
    "TextRepresentation": "H20",
    "Nodes": [
        {
            "ID": 0,
            "AtomType": "Hydrogen"
        },
        {
            "ID": 1,
            "AtomType": "Oxygen"
        },
        {
            "ID": 2,
            "AtomType": "Hydrogen"
        }
    ],
    "Connections":[
        {
            "A": 0,
            "B": 1,
            "BondType": "Single",
            "Angle": [0,0,135]
        },
        {
            "A": 1,
            "B": 2,
            "BondType": "Single",
            "Angle": [0,0,45]
        }
    ]
}